<svg width="50" height="40" viewBox="0 0 50 40" fill="none" xmlns="http://www.w3.org/2000/svg">
<path d="M9.09926 10.6976C12.3162 5.11619 18.1985 1.39526 25 1.39526C35.1103 1.39526 43.3824 9.76736 43.3824 19.9999C43.3824 20.372 43.3824 20.7441 43.3824 21.1162" stroke="black" stroke-width="2.5" stroke-miterlimit="10" stroke-linecap="round" stroke-linejoin="round"/>
<path d="M40.9926 29.2091C37.8676 34.7905 31.8934 38.6045 25 38.6045C14.8897 38.6045 6.61765 30.2324 6.61765 19.9998C6.61765 19.5347 6.61765 19.1626 6.61765 18.6975" stroke="black" stroke-width="2.5" stroke-miterlimit="10" stroke-linecap="round" stroke-linejoin="round"/>
<path d="M38.1434 17.5813L43.3824 22.7906L48.6213 17.5813" stroke="black" stroke-width="2.5" stroke-miterlimit="10" stroke-linecap="round" stroke-linejoin="round"/>
<path d="M11.8566 21.3023L6.61765 16.093L1.37868 21.3023" stroke="black" stroke-width="2.5" stroke-miterlimit="10" stroke-linecap="round" stroke-linejoin="round"/>
<path d="M12.5919 33.4883C15.8088 30.6046 20.0368 28.9302 24.6324 28.9302C29.2279 28.9302 33.5478 30.6976 36.7647 33.5813" stroke="black" stroke-width="2.5" stroke-miterlimit="10" stroke-linecap="round" stroke-linejoin="round"/>
<path d="M24.7243 24C27.973 24 30.6066 21.3345 30.6066 18.0465C30.6066 14.7585 27.973 12.093 24.7243 12.093C21.4755 12.093 18.8419 14.7585 18.8419 18.0465C18.8419 21.3345 21.4755 24 24.7243 24Z" stroke="black" stroke-width="2.5" stroke-miterlimit="10" stroke-linecap="round" stroke-linejoin="round"/>
</svg>
