{
  "$schema": "http://json-schema.org/draft-07/schema#",
  "title": "JSON Schema that defines the format of our tech_stack.yml file.",
  "type": "array",
  "items": {
    "$ref": "#/definitions/tech_stack"
  },
  "definitions": {
    "tech_stack": {
      "type": "object",
      "required": [
        "title",
        "team_member_baseline_entitlement",
        "subprocessor",
        "description",
        "access_to",
        "provisioner",
        "deprovisioner",
        "group_owner_slack_channel",
        "business_owner",
        "technical_owner",
        "data_classification",
        "integration_method",
        "need_move_to_okta",
        "in_sox_scope",
        "date_added_to_sox_scope",
        "collected_data",
        "processing_customer_data",
        "employee_or_customer_facing_app",
        "notes",
        "saas"
      ],
      "properties": {
        "title": {
          "type": "string",
          "description": "Title: The name of the system you are adding to the tech stack. Please enter the full and correct brand name associated with the tool. Example: '[Zendesk](https://www.zendesk.com/), not ZenDesk.' . Responsible: MR Author and contributors"
        },
        "team_member_baseline_entitlement": {
          "oneOf": [
            {
              "type": "boolean",
              "description": "Baseline entitlement: A baseline entitlement is a system that **ALL** GitLab Team Members get access to. Example: 'Zoom'. Most systems in our Tech Stack are not baseline entitlements.. Responsible: MR Author and contributors"
            },
            {
              "type": "null"
            }
          ]
        },
        "subprocessor": {
          "oneOf": [
            {
              "type": "boolean",
              "description": "Subprocessor: Decided upon by the legal team. This information can be found in the tool's privacy review issue. A subprocessor is a tool that has or potentially will have access to or process Service Data (which may contain Personal Data)."
            },
            {
              "type": "null"
            }
          ]
        },
        "description": {
          "type": "string",
          "description": "Description: Business Purpose of the system. Please add links to handbook pages or websites that can provide people with more information on what the system is used for. Example: '[ContractWorks](https://www.contractworks.com/) is a contract managing software. [This process](/handbook/legal/vendor-contract-filing-process/) is used to file contract or related vendor documents after they are fully executed.'. Responsible: MR Author and contributors"
        },
        "access_to": {
          "type": "string",
          "description": "Define which individuals or teams need access to this system. Example: Strategic Marketing and Product Managers. Responsible: MR Author and contributors"
        },
        "provisioner": {
          "type": "string",
          "description": "Provisioner: Text in single quotes. Add the username of the people in charge of provisioning access to this system, separated by commas. We require at least 2 people to be listed as provisioners of a tool. Example: '`@username`, `@username1`' . Responsible: MR Author and contributors"
        },
        "deprovisioner": {
          "type": "string",
          "description": "Deprovisioner: Text in single quotes.  Add the username of the people in charge of removing access to this system, separated by commas. We require at least 2 people to be listed as deprovisioners of a tool. Team members can serve as both provisioners and deprovisioners of a tool. Example: '`@username`, `@username1`' . Responsible: MR Author and contributors"
        },
        "group_owner_slack_channel": {
          "type": "string",
          "description": "Group Owner/Slack Channel: Text in single quotes.  Add the group owner of the tool (team/department/function) followed by the Slack channel where they can reach out for help. Example: 'Infrastructure (Group Owner), #infrastructure-lounge'. Responsible: MR Author and contributors"
        },
        "business_owner": {
          "type": "string",
          "description": "Business Owner: The Business Owner is the individual(s) responsible for all budget and decision making around the tool. They should define how the tool is used and by whom. This person(s) usually has login access to the tool as `Owner` but login access isn't necessary in all cases. Please make sure you list individual people in this field, rather than teams. Example: Jane Doe, John Doe. Responsible: MR Author and contributors"
        },
        "technical_owner": {
          "type": "string",
          "description": "Technical Owner: The Technical Owner(s) all the `administrators` of a tool. This includes everyone with the administrative clearence to provision and deprovision access of a tool and/or as the technical expertise needed to manage it. Example: Jane Doe, John Doe. Responsible: MR Author and contributors"
        },
        "data_classification": {
          "type": "string",
          "enum": [
            "Red",
            "Orange",
            "Yellow",
            "Green"
          ],
          "description": "Data Classification: Decided upon by the Security team, please leave as `null` while this process is completed. More information on [Data Classification Standards](https://about.gitlab.com/handbook/engineering/security/data-classification-standard.html). Responsible: IT Compliance Team"
        },
        "integration_method": {
          "oneOf": [
            {
              "type": "string",
              "description": "Integration Method: Login method used to access the system. It can be [SWA](https://help.okta.com/en/prod/Content/Topics/Apps/Apps_Overview_of_Managing_Apps_and_SSO.htm), [SAML](https://support.okta.com/help/s/article/Beginner-s-Guide-to-SAML?language=en_US) or other such as direct access (email and password login). . Responsible: MR Author and contributors"
            },
            {
              "type": "null"
            }
          ]
        },
        "need_move_to_okta": {
          "oneOf": [
            {
              "type": "boolean",
              "description": "Responsible: MR Author and contributors"
            },
            {
              "type": "null"
            }
          ]
        },
        "critical_systems_tier": {
          "oneOf": [
            {
              "type": "string",
              "description": "Critical Systems Tier: This field classifies the system based on GitLab's Critical System Tier Definitions. It is typically decided on by the Risk & Field Security and IT Compliance."
            },
            {
              "type": "null"
            }
          ]
        },

        "in_sox_scope": {
          "oneOf": [
            {
              "type": "boolean",
              "description": "In Sox Scope: Decided upon by the Internal Audit Team, please leave as `null` while this process is completed.. Responsible: Internal Audit Team"
            },
            {
              "type": "null"
            }
          ]
        },
        "date_added_to_sox_scope": {
          "oneOf": [
            {
              "type": "string",
              "format": "date",
              "examples": [
                "2020-03-27"
              ],
              "description": "Date added to Sox Scope: The date needs to be added in the 'YYYY-MM-DD' format. . Responsible: Internal Audit Team "
            },
            {
              "type": "null"
            }
          ]
        },
        "collected_data": {
          "oneOf": [
            {
              "type": "string",
              "description": "Collected Data: Data that is collected by the tool. Responsible: MR Author and contributors "
            },
            {
              "type": "null"
            }
          ]
        },
        "processing_customer_data": {
          "oneOf": [
            {
              "type": "string",
              "description": "Processing customer Data: Decided upon by the Legal team, please leave as `null` while this process is completed. Responsible: Legal team"
            },
            {
              "type": "null"
            }
          ]
        },
        "employee_or_customer_facing_app": {
          "oneOf": [
            {
              "type": "string",
              "description": "Employee or Customer Facing app?: If access is limited to GitLab team members, then please add the `employee` word. If access can be granted to external parties, then add `customer`. Responsible: MR Author and contributors"
            },
            {
              "type": "null"
            }
          ]
        },
        "notes": {
          "oneOf": [
            {
              "type": "string",
              "description": "Notes: Additional relevant information about the system that is not captured in any other field.. Responsible: Optional, MR Author and contributors"
            },
            {
              "type": "null"
            }
          ]
        },
        "saas": {
          "oneOf": [
            {
              "type": "boolean",
              "description": "SaaS: Is the tool a Sofware as a Service (SaaS) tool?. Responsible: Optional, MR Author and contributors"
            },
            {
              "type": "null"
            }
          ]
        }
      }
    }
  }
}